{
  "project_info": {
    "project_number": "540953354055",
    "project_id": "proyectofinaluf2",
    "storage_bucket": "proyectofinaluf2.appspot.com"
  },
  "client": [
    {
      "client_info": {
        "mobilesdk_app_id": "1:540953354055:android:a74658b352f3748b88f662",
        "android_client_info": {
          "package_name": "com.example.proyectofinaluf2"
        }
      },
      "oauth_client": [
        {
          "client_id": "540953354055-aa9sa9jf453bgmcrgdrc513acvvni6si.apps.googleusercontent.com",
          "client_type": 1,
          "android_info": {
            "package_name": "com.example.proyectofinaluf2",
            "certificate_hash": "451e4c94637a925a4dfd204f6cbd20c6b1bc1dea"
          }
        },
        {
          "client_id": "540953354055-4g1ahnv7i3ts2e7nmh6mcuntpppok73l.apps.googleusercontent.com",
          "client_type": 3
        }
      ],
      "api_key": [
        {
          "current_key": "AIzaSyBNtIRIziOuA8gAI_rvdpWAzd3o5hjokEo"
        }
      ],
      "services": {
        "appinvite_service": {
          "other_platform_oauth_client": [
            {
              "client_id": "540953354055-4g1ahnv7i3ts2e7nmh6mcuntpppok73l.apps.googleusercontent.com",
              "client_type": 3
            }
          ]
        }
      }
    }
  ],
  "configuration_version": "1"
}